{
    "MatVisAttributes": [
        {
            "ambient": {
                "B": 0.5699999928474426,
                "G": 0.5699999928474426,
                "R": 0.5699999928474426
            },
            "diffuse": {
                "B": 0.5,
                "G": 0.699999988079071,
                "R": 0.8999999761581421
            },
            "emissive": {
                "B": 0.0,
                "G": 0.0,
                "R": 0.0
            },
            "name": [
                "AlNitride",
		"Dogleg",
		"BrlBaseBoard",
		"BrlHybrid",
		"BrlBracket",
		"PigTail"
            ],
            "shininess": 0.800000011920929,
            "specular": {
                "B": 0.27000001072883606,
                "G": 0.27000001072883606,
                "R": 0.27000001072883606
            },
            "transparency": 0.0
        },
        {
            "ambient": {
                "B": 0.7200000286102295,
                "G": 0.7200000286102295,
                "R": 0.699999988079071
            },
            "diffuse": {
                "B": 0.5699999928474426,
                "G": 0.5699999928474426,
                "R": 0.5600000023841858
            },
            "emissive": {
                "B": 0.0,
                "G": 0.0,
                "R": 0.0
            },
            "name": [
                "Aluminium"
            ],
            "shininess": 0.23000000417232513,
            "specular": {
                "B": 0.46000000834465027,
                "G": 0.47999998927116394,
                "R": 0.7099999785423279
            },
            "transparency": 0.0
        },
        {
            "ambient": {
                "B": 0.20000000298023224,
                "G": 0.20000000298023224,
                "R": 0.20000000298023224
            },
            "diffuse": {
                "B": 0.8100000023841858,
                "G": 0.4699999988079071,
                "R": 0.5799999833106995
            },
            "emissive": {
                "B": 0.0,
                "G": 0.0,
                "R": 0.0
            },
            "name": [
                "ArCO2",
		"CO2"
            ],
            "shininess": 0.20000000298023224,
            "specular": {
                "B": 0.5600000023841858,
                "G": 0.550000011920929,
                "R": 0.5600000023841858
            },
            "transparency": 0.0
        },
        {
            "ambient": {
                "B": 0.20000000298023224,
                "G": 0.20000000298023224,
                "R": 0.20000000298023224
            },
            "diffuse": {
                "B": 0.0,
                "G": 0.0,
                "R": 1.0
            },
            "emissive": {
                "B": 0.0,
                "G": 0.0,
                "R": 0.0
            },
            "name": [
                "Cables"
            ],
            "shininess": 0.20000000298023224,
            "specular": {
                "B": 0.0,
                "G": 0.0,
                "R": 0.0
            },
            "transparency": 0.0
        },
        {
            "ambient": {
                "B": 0.07000000029802322,
                "G": 0.07000000029802322,
                "R": 0.07000000029802322
            },
            "diffuse": {
                "B": 0.20000000298023224,
                "G": 0.20000000298023224,
                "R": 0.20000000298023224
            },
            "emissive": {
                "B": 0.02800000086426735,
                "G": 0.02800000086426735,
                "R": 0.02800000086426735
            },
            "name": [
                "Carbon"
            ],
            "shininess": 0.20000000298023224,
            "specular": {
                "B": 0.800000011920929,
                "G": 0.800000011920929,
                "R": 0.800000011920929
            },
            "transparency": 0.0
        },
        {
            "ambient": {
                "B": 0.20000000298023224,
                "G": 0.20000000298023224,
                "R": 0.20000000298023224
            },
            "diffuse": {
                "B": 0.10499999672174454,
                "G": 0.5099999904632568,
                "R": 0.800000011920929
            },
            "emissive": {
                "B": 0.02800000086426735,
                "G": 0.02800000086426735,
                "R": 0.02800000086426735
            },
            "name": [
                "Chip"
            ],
            "shininess": 0.6000000238418579,
            "specular": {
                "B": 0.38999998569488525,
                "G": 0.38999998569488525,
                "R": 0.38999998569488525
            },
            "transparency": 0.0
        },
        {
            "ambient": {
                "B": 0.5699999928474426,
                "G": 0.5699999928474426,
                "R": 0.5699999928474426
            },
            "diffuse": {
                "B": 0.8999999761581421,
                "G": 0.8199999928474426,
                "R": 0.5699999928474426
            },
            "emissive": {
                "B": 0.0,
                "G": 0.0,
                "R": 0.0
            },
            "name": [
                "CoolingBlock",
		"sct::CoolBlockSecHi",
		"sct::CoolBlockSecLo",
		"sct::DiscCoolingInn",
		"sct::DiscCoolingOut"
            ],
            "shininess": 0.800000011920929,
            "specular": {
                "B": 0.27000001072883606,
                "G": 0.27000001072883606,
                "R": 0.27000001072883606
            },
            "transparency": 0.0
        },
        {
            "ambient": {
                "B": 0.0,
                "G": 0.0,
                "R": 0.0
            },
            "diffuse": {
                "B": 0.36000001430511475,
                "G": 0.4300000071525574,
                "R": 1.0
            },
            "emissive": {
                "B": 0.0,
                "G": 0.0,
                "R": 0.0
            },
            "name": [
                "Copper",
		"FCal1Absorber"
            ],
            "shininess": 0.4000000059604645,
            "specular": {
                "B": 1.0,
                "G": 1.0,
                "R": 1.0
            },
            "transparency": 0.0
        },
        {
            "ambient": {
                "B": 0.20000000298023224,
                "G": 0.20000000298023224,
                "R": 0.20000000298023224
            },
            "diffuse": {
                "B": 0.5,
                "G": 0.5,
                "R": 0.5
            },
            "emissive": {
                "B": 0.02800000086426735,
                "G": 0.02800000086426735,
                "R": 0.02800000086426735
            },
            "name": [
                "Disk"
            ],
            "shininess": 0.20000000298023224,
            "specular": {
                "B": 0.5,
                "G": 0.5,
                "R": 0.5
            },
            "transparency": 0.0
        },
        {
            "ambient": {
                "B": 0.20000000298023224,
                "G": 0.20000000298023224,
                "R": 0.20000000298023224
            },
            "diffuse": {
                "B": 0.10000000149011612,
                "G": 0.10000000149011612,
                "R": 0.10000000149011612
            },
            "emissive": {
                "B": 0.0,
                "G": 0.0,
                "R": 0.0
            },
            "name": [
                "ECCables"
            ],
            "shininess": 0.20000000298023224,
            "specular": {
                "B": 0.0,
                "G": 0.0,
                "R": 0.0
            },
            "transparency": 0.0
        },
        {
            "ambient": {
                "B": 0.20000000298023224,
                "G": 0.20000000298023224,
                "R": 0.20000000298023224
            },
            "diffuse": {
                "B": 0.699999988079071,
                "G": 0.699999988079071,
                "R": 0.699999988079071
            },
            "emissive": {
                "B": 0.0,
                "G": 0.0,
                "R": 0.0
            },
            "name": [
                "ECServices"
            ],
            "shininess": 0.20000000298023224,
            "specular": {
                "B": 0.5,
                "G": 0.5,
                "R": 0.5
            },
            "transparency": 0.0
        },
        {
            "ambient": {
                "B": 0.20000000298023224,
                "G": 0.20000000298023224,
                "R": 0.20000000298023224
            },
            "diffuse": {
                "B": 0.1760150045156479,
                "G": 0.7480159997940063,
                "R": 0.0
            },
            "emissive": {
                "B": 0.0,
                "G": 0.0,
                "R": 0.0
            },
            "name": [
                "Epoxy"
            ],
            "shininess": 0.7212120294570923,
            "specular": {
                "B": 0.9818180203437805,
                "G": 0.9818180203437805,
                "R": 0.9818180203437805
            },
            "transparency": 0.0
        },
        {
            "ambient": {
                "B": 0.20000000298023224,
                "G": 0.20000000298023224,
                "R": 0.20000000298023224
            },
            "diffuse": {
                "B": 0.14238399267196655,
                "G": 0.3142859935760498,
                "R": 0.3087640106678009
            },
            "emissive": {
                "B": 0.0,
                "G": 0.0,
                "R": 0.0
            },
            "name": [
                "G10"
            ],
            "shininess": 0.6170210242271423,
            "specular": {
                "B": 0.3084549903869629,
                "G": 0.315311998128891,
                "R": 0.26827600598335266
            },
            "transparency": 0.0
        },
        {
            "ambient": {
                "B": 0.20000000298023224,
                "G": 0.20000000298023224,
                "R": 0.20000000298023224
            },
            "diffuse": {
                "B": 1.0,
                "G": 0.8999999761581421,
                "R": 0.800000011920929
            },
            "emissive": {
                "B": 0.02800000086426735,
                "G": 0.02800000086426735,
                "R": 0.02800000086426735
            },
            "name": [
                "Glass"
            ],
            "shininess": 0.6000000238418579,
            "specular": {
                "B": 0.38999998569488525,
                "G": 0.38999998569488525,
                "R": 0.38999998569488525
            },
            "transparency": 0.0
        },
        {
            "ambient": {
                "B": 0.20000000298023224,
                "G": 0.20000000298023224,
                "R": 0.20000000298023224
            },
            "diffuse": {
                "B": 1.0,
                "G": 0.666700005531311,
                "R": 0.0
            },
            "emissive": {
                "B": 0.0,
                "G": 0.0,
                "R": 0.0
            },
            "name": [
                "Honeycomb"
            ],
            "shininess": 0.20000000298023224,
            "specular": {
                "B": 0.0,
                "G": 0.0,
                "R": 0.0
            },
            "transparency": 0.0
        },
        {
            "ambient": {
                "B": 0.20000000298023224,
                "G": 0.20000000298023224,
                "R": 0.20000000298023224
            },
            "diffuse": {
                "B": 0.0,
                "G": 0.33000001311302185,
                "R": 0.15000000596046448
            },
            "emissive": {
                "B": 0.02800000086426735,
                "G": 0.02800000086426735,
                "R": 0.02800000086426735
            },
            "name": [
                "Hybrid"
            ],
            "shininess": 0.6000000238418579,
            "specular": {
                "B": 0.38999998569488525,
                "G": 0.38999998569488525,
                "R": 0.38999998569488525
            },
            "transparency": 0.0
        },
        {
            "ambient": {
                "B": 0.20000000298023224,
                "G": 0.20000000298023224,
                "R": 0.20000000298023224
            },
            "diffuse": {
                "B": 0.10000000149011612,
                "G": 0.10000000149011612,
                "R": 0.10000000149011612
            },
            "emissive": {
                "B": 0.0,
                "G": 0.0,
                "R": 0.0
            },
            "name": [
                "Iron"
            ],
            "shininess": 0.6000000238418579,
            "specular": {
                "B": 0.8899999856948853,
                "G": 0.9200000166893005,
                "R": 0.9200000166893005
            },
            "transparency": 0.0
        },
        {
            "ambient": {
                "B": 0.17740200459957123,
                "G": 0.12793099880218506,
                "R": 0.20000000298023224
            },
            "diffuse": {
                "B": 0.18081499636173248,
                "G": 0.1551389992237091,
                "R": 0.5766500234603882
            },
            "emissive": {
                "B": 0.0,
                "G": 0.0,
                "R": 0.0
            },
            "name": [
                "Kapton",
		"KaptonC",
		"FCalCableHarness"
            ],
            "shininess": 0.6700000166893005,
            "specular": {
                "B": 0.44166699051856995,
                "G": 0.44166699051856995,
                "R": 0.44166699051856995
            },
            "transparency": 0.0
        },
        {
            "ambient": {
                "B": 0.699999988079071,
                "G": 0.05000000074505806,
                "R": 0.05000000074505806
            },
            "diffuse": {
                "B": 0.4699999988079071,
                "G": 0.36000001430511475,
                "R": 0.38999998569488525
            },
            "emissive": {
                "B": 0.0,
                "G": 0.0,
                "R": 0.0
            },
            "name": [
                "Lead",
		"Thinabs",
		"Thickabs"
            ],
            "shininess": 0.30000001192092896,
            "specular": {
                "B": 0.3499999940395355,
                "G": 0.33000001311302185,
                "R": 0.33000001311302185
            },
            "transparency": 0.0
        },
        {
            "ambient": {
                "B": 0.05999999865889549,
                "G": 0.05000000074505806,
                "R": 0.05000000074505806
            },
            "diffuse": {
                "B": 0.47999998927116394,
                "G": 0.36000001430511475,
                "R": 0.38999998569488525
            },
            "emissive": {
                "B": 0.6000000238418579,
                "G": 0.6000000238418579,
                "R": 0.44999998807907104
            },
            "name": [
                "LiquidArgon"
            ],
            "shininess": 0.30000001192092896,
            "specular": {
                "B": 0.3499999940395355,
                "G": 0.33000001311302185,
                "R": 0.33000001311302185
            },
            "transparency": 0.0
        },
        {
            "ambient": {
                "B": 0.20000000298023224,
                "G": 0.20000000298023224,
                "R": 0.20000000298023224
            },
            "diffuse": {
                "B": 0.0,
                "G": 1.0,
                "R": 0.0
            },
            "emissive": {
                "B": 0.0,
                "G": 0.0,
                "R": 0.0
            },
            "name": [
                "MBoards"
            ],
            "shininess": 0.20000000298023224,
            "specular": {
                "B": 0.0,
                "G": 0.0,
                "R": 0.0
            },
            "transparency": 0.0
        },
        {
            "ambient": {
                "B": 0.7200000286102295,
                "G": 0.7200000286102295,
                "R": 0.699999988079071
            },
            "diffuse": {
                "B": 0.5699999928474426,
                "G": 0.5699999928474426,
                "R": 0.5600000023841858
            },
            "emissive": {
                "B": 0.0,
                "G": 0.0,
                "R": 0.0
            },
            "name": [
                "MatAlTube",
		"pix::AlTube_BL",
		"pix::AlTube_L1",
		"pix::MatAlTubeFix"
            ],
            "shininess": 0.23000000417232513,
            "specular": {
                "B": 0.46000000834465027,
                "G": 0.47999998927116394,
                "R": 0.7099999785423279
            },
            "transparency": 0.0
        },
        {
            "ambient": {
                "B": 0.20000000298023224,
                "G": 0.20000000298023224,
                "R": 0.20000000298023224
            },
            "diffuse": {
                "B": 0.20000000298023224,
                "G": 0.0,
                "R": 0.0
            },
            "emissive": {
                "B": 0.0,
                "G": 0.0,
                "R": 0.0
            },
            "name": [
                "MatCap1"
            ],
            "shininess": 0.20000000298023224,
            "specular": {
                "B": 0.0,
                "G": 0.0,
                "R": 0.0
            },
            "transparency": 0.0
        },
        {
            "ambient": {
                "B": 0.20000000298023224,
                "G": 0.20000000298023224,
                "R": 0.20000000298023224
            },
            "diffuse": {
                "B": 0.27000001072883606,
                "G": 0.0,
                "R": 0.0
            },
            "emissive": {
                "B": 0.0,
                "G": 0.0,
                "R": 0.0
            },
            "name": [
                "MatCap2"
            ],
            "shininess": 0.20000000298023224,
            "specular": {
                "B": 0.0,
                "G": 0.0,
                "R": 0.0
            },
            "transparency": 0.0
        },
        {
            "ambient": {
                "B": 0.20000000298023224,
                "G": 0.20000000298023224,
                "R": 0.20000000298023224
            },
            "diffuse": {
                "B": 0.0,
                "G": 0.0,
                "R": 0.0
            },
            "emissive": {
                "B": 0.0,
                "G": 0.0,
                "R": 0.0
            },
            "name": [
                "MatConn",
		"pix::Connector_BL",
		"pix::Connector_L1",
		"pix::Connector_L2"
            ],
            "shininess": 0.20000000298023224,
            "specular": {
                "B": 0.800000011920929,
                "G": 0.800000011920929,
                "R": 0.800000011920929
            },
            "transparency": 0.0
        },
        {
            "ambient": {
                "B": 0.20000000298023224,
                "G": 0.20000000298023224,
                "R": 0.20000000298023224
            },
            "diffuse": {
                "B": 0.7799999713897705,
                "G": 1.0,
                "R": 1.0
            },
            "emissive": {
                "B": 0.0,
                "G": 0.0,
                "R": 0.0
            },
            "name": [
                "MatGlue",
		"pix::GlueOmegaStave_BL0",
		"pix::GlueOmegaStave_L10",
		"pix::GlueOmegaStave_L20"
            ],
            "shininess": 0.20000000298023224,
            "specular": {
                "B": 0.0,
                "G": 0.0,
                "R": 0.0
            },
            "transparency": 0.0
        },
        {
            "ambient": {
                "B": 0.20000000298023224,
                "G": 0.20000000298023224,
                "R": 0.20000000298023224
            },
            "diffuse": {
                "B": 0.2199999988079071,
                "G": 0.2199999988079071,
                "R": 0.2199999988079071
            },
            "emissive": {
                "B": 0.0,
                "G": 0.0,
                "R": 0.0
            },
            "name": [
                "MatOmega",
		"pix::Omega_BL",
		"pix::Omega_L1",
		"pix::Omega_L2"
            ],
            "shininess": 0.20000000298023224,
            "specular": {
                "B": 0.0,
                "G": 0.0,
                "R": 0.0
            },
            "transparency": 0.0
        },
        {
            "ambient": {
                "B": 0.20000000298023224,
                "G": 0.20000000298023224,
                "R": 0.20000000298023224
            },
            "diffuse": {
                "B": 0.029999999329447746,
                "G": 0.029999999329447746,
                "R": 0.07999999821186066
            },
            "emissive": {
                "B": 0.0,
                "G": 0.0,
                "R": 0.0
            },
            "name": [
                "MatPP11"
            ],
            "shininess": 0.20000000298023224,
            "specular": {
                "B": 0.0,
                "G": 0.0,
                "R": 0.0
            },
            "transparency": 0.0
        },
        {
            "ambient": {
                "B": 0.20000000298023224,
                "G": 0.20000000298023224,
                "R": 0.20000000298023224
            },
            "diffuse": {
                "B": 0.25699999928474426,
                "G": 0.2919999957084656,
                "R": 0.32499998807907104
            },
            "emissive": {
                "B": 0.0,
                "G": 0.0,
                "R": 0.0
            },
            "name": [
                "MatPP12"
            ],
            "shininess": 0.20000000298023224,
            "specular": {
                "B": 0.0,
                "G": 0.0,
                "R": 0.0
            },
            "transparency": 0.0
        },
        {
            "ambient": {
                "B": 0.20000000298023224,
                "G": 0.20000000298023224,
                "R": 0.20000000298023224
            },
            "diffuse": {
                "B": 0.30000001192092896,
                "G": 0.3799999952316284,
                "R": 0.41999998688697815
            },
            "emissive": {
                "B": 0.02800000086426735,
                "G": 0.02800000086426735,
                "R": 0.02800000086426735
            },
            "name": [
                "MatPP13"
            ],
            "shininess": 0.20000000298023224,
            "specular": {
                "B": 0.0,
                "G": 0.0,
                "R": 0.0
            },
            "transparency": 0.0
        },
        {
            "ambient": {
                "B": 0.20000000298023224,
                "G": 0.20000000298023224,
                "R": 0.20000000298023224
            },
            "diffuse": {
                "B": 0.30000001192092896,
                "G": 0.30000001192092896,
                "R": 0.30000001192092896
            },
            "emissive": {
                "B": 0.02800000086426735,
                "G": 0.02800000086426735,
                "R": 0.02800000086426735
            },
            "name": [
                "MatPP14"
            ],
            "shininess": 0.20000000298023224,
            "specular": {
                "B": 0.0,
                "G": 0.0,
                "R": 0.0
            },
            "transparency": 0.0
        },
        {
            "ambient": {
                "B": 0.20000000298023224,
                "G": 0.20000000298023224,
                "R": 0.20000000298023224
            },
            "diffuse": {
                "B": 0.23000000417232513,
                "G": 0.20000000298023224,
                "R": 0.20000000298023224
            },
            "emissive": {
                "B": 0.02800000086426735,
                "G": 0.02800000086426735,
                "R": 0.02800000086426735
            },
            "name": [
                "MatPP15"
            ],
            "shininess": 0.20000000298023224,
            "specular": {
                "B": 0.0,
                "G": 0.0,
                "R": 0.0
            },
            "transparency": 0.0
        },
        {
            "ambient": {
                "B": 0.20000000298023224,
                "G": 0.20000000298023224,
                "R": 0.20000000298023224
            },
            "diffuse": {
                "B": 0.4000000059604645,
                "G": 0.4000000059604645,
                "R": 0.4000000059604645
            },
            "emissive": {
                "B": 0.02800000086426735,
                "G": 0.02800000086426735,
                "R": 0.02800000086426735
            },
            "name": [
                "MatPP16"
            ],
            "shininess": 0.20000000298023224,
            "specular": {
                "B": 0.0,
                "G": 0.0,
                "R": 0.0
            },
            "transparency": 0.0
        },
        {
            "ambient": {
                "B": 0.20000000298023224,
                "G": 0.20000000298023224,
                "R": 0.20000000298023224
            },
            "diffuse": {
                "B": 0.1599999964237213,
                "G": 0.1899999976158142,
                "R": 0.17000000178813934
            },
            "emissive": {
                "B": 0.02800000086426735,
                "G": 0.02800000086426735,
                "R": 0.02800000086426735
            },
            "name": [
                "MatPP17"
            ],
            "shininess": 0.20000000298023224,
            "specular": {
                "B": 0.0,
                "G": 0.0,
                "R": 0.0
            },
            "transparency": 0.0
        },
        {
            "ambient": {
                "B": 0.20000000298023224,
                "G": 0.20000000298023224,
                "R": 0.20000000298023224
            },
            "diffuse": {
                "B": 0.12999999523162842,
                "G": 0.5799999833106995,
                "R": 0.949999988079071
            },
            "emissive": {
                "B": 0.0,
                "G": 0.0,
                "R": 0.0
            },
            "name": [
                "MatPigtail"
            ],
            "shininess": 0.30000001192092896,
            "specular": {
                "B": 0.699999988079071,
                "G": 0.75,
                "R": 0.800000011920929
            },
            "transparency": 0.0
        },
        {
            "ambient": {
                "B": 0.20000000298023224,
                "G": 0.20000000298023224,
                "R": 0.20000000298023224
            },
            "diffuse": {
                "B": 0.05999999865889549,
                "G": 0.05999999865889549,
                "R": 0.05999999865889549
            },
            "emissive": {
                "B": 0.0,
                "G": 0.0,
                "R": 0.0
            },
            "name": [
                "MatT0",
		"Cable"
            ],
            "shininess": 0.20000000298023224,
            "specular": {
                "B": 0.800000011920929,
                "G": 0.800000011920929,
                "R": 0.800000011920929
            },
            "transparency": 0.0
        },
        {
            "ambient": {
                "B": 0.20000000298023224,
                "G": 0.20000000298023224,
                "R": 0.20000000298023224
            },
            "diffuse": {
                "B": 0.41999998688697815,
                "G": 0.41999998688697815,
                "R": 0.41999998688697815
            },
            "emissive": {
                "B": 0.0,
                "G": 0.0,
                "R": 0.0
            },
            "name": [
                "MatTMT",
		"pix::AsTMT_BL",
		"pix::AsTMT_L1",
		"pix::AsTMT_L2"
            ],
            "shininess": 0.20000000298023224,
            "specular": {
                "B": 0.0,
                "G": 0.0,
                "R": 0.0
            },
            "transparency": 0.0
        },
        {
            "ambient": {
                "B": 0.20000000298023224,
                "G": 0.20000000298023224,
                "R": 0.20000000298023224
            },
            "diffuse": {
                "B": 0.5410000085830688,
                "G": 0.7179999947547913,
                "R": 0.7649999856948853
            },
            "emissive": {
                "B": 0.0,
                "G": 0.0,
                "R": 0.0
            },
            "name": [
                "PCB"
            ],
            "shininess": 0.20000000298023224,
            "specular": {
                "B": 0.5,
                "G": 0.5,
                "R": 0.5
            },
            "transparency": 0.0
        },
        {
            "ambient": {
                "B": 0.6200000047683716,
                "G": 0.6200000047683716,
                "R": 0.6000000238418579
            },
            "diffuse": {
                "B": 0.5199999809265137,
                "G": 0.5199999809265137,
                "R": 0.5099999904632568
            },
            "emissive": {
                "B": 0.0,
                "G": 0.0,
                "R": 0.0
            },
            "name": [
                "Peek"
            ],
            "shininess": 0.2800000011920929,
            "specular": {
                "B": 0.36000001430511475,
                "G": 0.3799999952316284,
                "R": 0.6100000143051147
            },
            "transparency": 0.0
        },
        {
            "ambient": {
                "B": 0.5699999928474426,
                "G": 0.5699999928474426,
                "R": 0.5699999928474426
            },
            "diffuse": {
                "B": 0.4000000059604645,
                "G": 0.6000000238418579,
                "R": 0.4000000059604645
            },
            "emissive": {
                "B": 0.0,
                "G": 0.0,
                "R": 0.0
            },
            "name": [
                "PowerTape"
            ],
            "shininess": 0.800000011920929,
            "specular": {
                "B": 0.27000001072883606,
                "G": 0.27000001072883606,
                "R": 0.27000001072883606
            },
            "transparency": 0.0
        },
        {
            "ambient": {
                "B": 0.41999998688697815,
                "G": 0.41999998688697815,
                "R": 0.4000000059604645
            },
            "diffuse": {
                "B": 0.3700000047683716,
                "G": 0.3700000047683716,
                "R": 0.36000001430511475
            },
            "emissive": {
                "B": 0.0,
                "G": 0.0,
                "R": 0.0
            },
            "name": [
                "Prepreg"
            ],
            "shininess": 0.3799999952316284,
            "specular": {
                "B": 0.25999999046325684,
                "G": 0.2800000011920929,
                "R": 0.5099999904632568
            },
            "transparency": 0.0
        },
        {
            "ambient": {
                "B": 0.20000000298023224,
                "G": 0.20000000298023224,
                "R": 0.20000000298023224
            },
            "diffuse": {
                "B": 0.0,
                "G": 0.7480159997940063,
                "R": 0.3819440007209778
            },
            "emissive": {
                "B": 0.0,
                "G": 0.0,
                "R": 0.0
            },
            "name": [
                "Scintillator"
            ],
            "shininess": 0.9818180203437805,
            "specular": {
                "B": 0.9636359810829163,
                "G": 0.9636359810829163,
                "R": 0.9636359810829163
            },
            "transparency": 0.0
        },
        {
            "ambient": {
                "B": 0.20000000298023224,
                "G": 0.20000000298023224,
                "R": 0.20000000298023224
            },
            "diffuse": {
                "B": 0.5410000085830688,
                "G": 0.7179999947547913,
                "R": 0.7649999856948853
            },
            "emissive": {
                "B": 0.0,
                "G": 0.0,
                "R": 0.0
            },
            "name": [
                "Services"
            ],
            "shininess": 0.20000000298023224,
            "specular": {
                "B": 0.5,
                "G": 0.5,
                "R": 0.5
            },
            "transparency": 0.0
        },
        {
            "ambient": {
                "B": 0.20000000298023224,
                "G": 0.20000000298023224,
                "R": 0.20000000298023224
            },
            "diffuse": {
                "B": 0.424237996339798,
                "G": 0.424237996339798,
                "R": 0.424237996339798
            },
            "emissive": {
                "B": 0.0,
                "G": 0.0,
                "R": 0.0
            },
            "name": [
                "ShieldSteel"
            ],
            "shininess": 0.1536960005760193,
            "specular": {
                "B": 0.1679999977350235,
                "G": 0.1679999977350235,
                "R": 0.1679999977350235
            },
            "transparency": 0.0
        },
        {
            "ambient": {
                "B": 0.019999999552965164,
                "G": 0.8199999928474426,
                "R": 0.9800000190734863
            },
            "diffuse": {
                "B": 0.36000001430511475,
                "G": 0.25999999046325684,
                "R": 0.1599999964237213
            },
            "emissive": {
                "B": 0.0,
                "G": 0.0,
                "R": 0.0
            },
            "name": [
                "Silicon"
            ],
            "shininess": 0.12999999523162842,
            "specular": {
                "B": 0.5600000023841858,
                "G": 0.550000011920929,
                "R": 0.5600000023841858
            },
            "transparency": 0.0
        },
        {
            "ambient": {
                "B": 0.20000000298023224,
                "G": 0.20000000298023224,
                "R": 0.20000000298023224
            },
            "diffuse": {
                "B": 0.424237996339798,
                "G": 0.424237996339798,
                "R": 0.424237996339798
            },
            "emissive": {
                "B": 0.0,
                "G": 0.0,
                "R": 0.0
            },
            "name": [
                "Stainless"
            ],
            "shininess": 0.1536960005760193,
            "specular": {
                "B": 0.1679999977350235,
                "G": 0.1679999977350235,
                "R": 0.1679999977350235
            },
            "transparency": 0.0
        },
        {
            "ambient": {
                "B": 0.20000000298023224,
                "G": 0.20000000298023224,
                "R": 0.20000000298023224
            },
            "diffuse": {
                "B": 0.6200000047683716,
                "G": 0.6200000047683716,
                "R": 0.6200000047683716
            },
            "emissive": {
                "B": 0.0,
                "G": 0.0,
                "R": 0.0
            },
            "name": [
                "Titanium"
            ],
            "shininess": 0.20000000298023224,
            "specular": {
                "B": 0.2939999997615814,
                "G": 0.2939999997615814,
                "R": 0.2939999997615814
            },
            "transparency": 0.0
        },
        {
            "ambient": {
                "B": 0.20000000298023224,
                "G": 0.20000000298023224,
                "R": 0.20000000298023224
            },
            "diffuse": {
                "B": 0.14000000059604645,
                "G": 0.14000000059604645,
                "R": 0.14000000059604645
            },
            "emissive": {
                "B": 0.0,
                "G": 0.0,
                "R": 0.0
            },
            "name": [
                "Tungsten",
		"Wolfram",
		"FCal23Absorber"
            ],
            "shininess": 0.20000000298023224,
            "specular": {
                "B": 1.0,
                "G": 0.9399999976158142,
                "R": 0.8399999737739563
            },
            "transparency": 0.0
        },
        {
            "ambient": {
                "B": 0.11999999731779099,
                "G": 0.49000000953674316,
                "R": 0.5
            },
            "diffuse": {
                "B": 0.4410000145435333,
                "G": 0.6179999709129333,
                "R": 0.6650000214576721
            },
            "emissive": {
                "B": 0.0,
                "G": 0.0,
                "R": 0.0
            },
            "name": [
                "pix::AsRingCen_BL",
		"pix::AsRingInt_BL",
		"pix::AsRingOut_BL",
		"pix::AsRing_L1",
		"pix::AsRingOut_L1",
		"pix::AsRing_L2",
		"pix::AsRingOut_L2",
		"pix::ServiceSupport_BL",
		"pix::ServiceSupport_L1",
		"pix::ServiceSupport_L2"
            ],
            "shininess": 0.3700000047683716,
            "specular": {
                "B": 0.1599999964237213,
                "G": 0.47999998927116394,
                "R": 0.5099999904632568
            },
            "transparency": 0.0
        },
        {
            "ambient": {
                "B": 0.11999999731779099,
                "G": 0.11999999731779099,
                "R": 0.10000000149011612
            },
            "diffuse": {
                "B": 0.17000000178813934,
                "G": 0.10000000149011612,
                "R": 0.09000000357627869
            },
            "emissive": {
                "B": 0.0,
                "G": 0.0,
                "R": 0.0
            },
            "name": [
                "pix::CablesAxial_BL",
		"pix::CoolingAxial_BL",
		"pix::CabCoolAxial_L1",
		"pix::CabCoolAxial_L2",
		"pix::CabCoolRadial_L1",
		"pix::OuterCable_BL",
		"pix::OuterCabCool_L1",
		"pix::OuterCabCool_L2"
            ],
            "shininess": 0.20000000298023224,
            "specular": {
                "B": 0.0,
                "G": 0.0,
                "R": 0.0
            },
            "transparency": 0.0
        },
        {
            "ambient": {
                "B": 0.14000000059604645,
                "G": 0.14000000059604645,
                "R": 0.11999999731779099
            },
            "diffuse": {
                "B": 0.1899999976158142,
                "G": 0.10999999940395355,
                "R": 0.10000000149011612
            },
            "emissive": {
                "B": 0.0,
                "G": 0.0,
                "R": 0.0
            },
            "name": [
                "pix::CablesRadial_BL",
		"pix::CoolingRadial_BL",
		"pix::CabCoolRadial_L2",
		"pix::OuterCooling_BL"
            ],
            "shininess": 0.20000000298023224,
            "specular": {
                "B": 0.0,
                "G": 0.0,
                "R": 0.0
            },
            "transparency": 0.0
        },
        {
            "ambient": {
                "B": 0.20000000298023224,
                "G": 0.20000000298023224,
                "R": 0.20000000298023224
            },
            "diffuse": {
                "B": 0.10499999672174454,
                "G": 0.5099999904632568,
                "R": 0.800000011920929
            },
            "emissive": {
                "B": 0.02800000086426735,
                "G": 0.02800000086426735,
                "R": 0.02800000086426735
            },
            "name": [
                "pix::Chip"
            ],
            "shininess": 0.6000000238418579,
            "specular": {
                "B": 0.38999998569488525,
                "G": 0.38999998569488525,
                "R": 0.38999998569488525
            },
            "transparency": 0.0
        },
        {
            "ambient": {
                "B": 0.5699999928474426,
                "G": 0.5699999928474426,
                "R": 0.550000011920929
            },
            "diffuse": {
                "B": 0.5199999809265137,
                "G": 0.5199999809265137,
                "R": 0.5099999904632568
            },
            "emissive": {
                "B": 0.0,
                "G": 0.0,
                "R": 0.0
            },
            "name": [
                "pix::Fingers1",
                "pix::Fingers2",
                "pix::Fingers3",
                "pix::Fingers4"
            ],
            "shininess": 0.33000001311302185,
            "specular": {
                "B": 0.25999999046325684,
                "G": 0.2800000011920929,
                "R": 0.5099999904632568
            },
            "transparency": 0.0
        },
        {
            "ambient": {
                "B": 0.20000000298023224,
                "G": 0.20000000298023224,
                "R": 0.20000000298023224
            },
            "diffuse": {
                "B": 0.75,
                "G": 1.0,
                "R": 1.0
            },
            "emissive": {
                "B": 0.0,
                "G": 0.0,
                "R": 0.0
            },
            "name": [
                "pix::GlueOmegaStave_BL1",
                "pix::GlueOmegaStave_L11",
                "pix::GlueOmegaStave_L21"
            ],
            "shininess": 0.20000000298023224,
            "specular": {
                "B": 0.0,
                "G": 0.0,
                "R": 0.0
            },
            "transparency": 0.0
        },
        {
            "ambient": {
                "B": 0.23000000417232513,
                "G": 0.23000000417232513,
                "R": 0.20999999344348907
            },
            "diffuse": {
                "B": 0.10999999940395355,
                "G": 0.10999999940395355,
                "R": 0.10000000149011612
            },
            "emissive": {
                "B": 0.0,
                "G": 0.0,
                "R": 0.0
            },
            "name": [
                "pix::Halfshell_BL",
                "pix::Halfshell_L1",
                "pix::Halfshell_L2"
            ],
            "shininess": 0.4300000071525574,
            "specular": {
                "B": 0.05999999865889549,
                "G": 0.2800000011920929,
                "R": 0.3100000023841858
            },
            "transparency": 0.0
        },
        {
            "ambient": {
                "B": 0.20000000298023224,
                "G": 0.20000000298023224,
                "R": 0.20000000298023224
            },
            "diffuse": {
                "B": 0.0,
                "G": 0.33000001311302185,
                "R": 0.15000000596046448
            },
            "emissive": {
                "B": 0.02800000086426735,
                "G": 0.02800000086426735,
                "R": 0.02800000086426735
            },
            "name": [
                "pix::Hybrid"
            ],
            "shininess": 0.6000000238418579,
            "specular": {
                "B": 0.38999998569488525,
                "G": 0.38999998569488525,
                "R": 0.38999998569488525
            },
            "transparency": 0.0
        },
        {
            "ambient": {
                "B": 0.3700000047683716,
                "G": 0.3700000047683716,
                "R": 0.3499999940395355
            },
            "diffuse": {
                "B": 0.3199999928474426,
                "G": 0.3199999928474426,
                "R": 0.3100000023841858
            },
            "emissive": {
                "B": 0.0,
                "G": 0.0,
                "R": 0.0
            },
            "name": [
                "pix::InnerSkin_BL",
                "pix::InnerSkin_L1",
                "pix::InnerSkin_L2"
            ],
            "shininess": 0.3799999952316284,
            "specular": {
                "B": 0.25999999046325684,
                "G": 0.2800000011920929,
                "R": 0.5099999904632568
            },
            "transparency": 0.0
        },
        {
            "ambient": {
                "B": 0.20000000298023224,
                "G": 0.20000000298023224,
                "R": 0.20000000298023224
            },
            "diffuse": {
                "B": 0.11999999731779099,
                "G": 0.5199999809265137,
                "R": 0.949999988079071
            },
            "emissive": {
                "B": 0.0,
                "G": 0.0,
                "R": 0.0
            },
            "name": [
                "pix::PigtailCyl",
		"pix::PigtialFlat"
            ],
            "shininess": 0.30000001192092896,
            "specular": {
                "B": 0.699999988079071,
                "G": 0.75,
                "R": 0.800000011920929
            },
            "transparency": 0.0
        },
        {
            "ambient": {
                "B": 0.41999998688697815,
                "G": 0.41999998688697815,
                "R": 0.4000000059604645
            },
            "diffuse": {
                "B": 0.3700000047683716,
                "G": 0.3700000047683716,
                "R": 0.36000001430511475
            },
            "emissive": {
                "B": 0.0,
                "G": 0.0,
                "R": 0.0
            },
            "name": [
                "pix::SSR_BL_A",
		"pix::SSR_BL_C",
		"pix::SSR_L1_A",
		"pix::SSR_L1_C",
		"pix::SSR_L2"
            ],
            "shininess": 0.3799999952316284,
            "specular": {
                "B": 0.25999999046325684,
                "G": 0.2800000011920929,
                "R": 0.5099999904632568
            },
            "transparency": 0.0
        },
        {
            "ambient": {
                "B": 0.25,
                "G": 0.25,
                "R": 0.20000000298023224
            },
            "diffuse": {
                "B": 0.2199999988079071,
                "G": 0.2199999988079071,
                "R": 0.2199999988079071
            },
            "emissive": {
                "B": 0.0,
                "G": 0.0,
                "R": 0.0
            },
            "name": [
                "pix::Ulink_BL_A",
		"pix::AsUlink_BL_C",
		"pix::AsUlink_L1",
		"pix::AsUlink_L2"
            ],
            "shininess": 0.20000000298023224,
            "specular": {
                "B": 0.0,
                "G": 0.0,
                "R": 0.0
            },
            "transparency": 0.0
        },
        {
            "ambient": {
                "B": 0.20000000298023224,
                "G": 0.20000000298023224,
                "R": 0.20000000298023224
            },
            "diffuse": {
                "B": 0.41999998688697815,
                "G": 0.41999998688697815,
                "R": 0.41999998688697815
            },
            "emissive": {
                "B": 0.0,
                "G": 0.0,
                "R": 0.0
            },
            "name": [
                "pix:AsTMT_BL"
            ],
            "shininess": 0.20000000298023224,
            "specular": {
                "B": 0.0,
                "G": 0.0,
                "R": 0.0
            },
            "transparency": 0.0
        },
        {
            "ambient": {
                "B": 0.5699999928474426,
                "G": 0.5699999928474426,
                "R": 0.5699999928474426
            },
            "diffuse": {
                "B": 0.30000001192092896,
                "G": 0.3499999940395355,
                "R": 0.4000000059604645
            },
            "emissive": {
                "B": 0.0,
                "G": 0.0,
                "R": 0.0
            },
            "name": [
                "sct::CFiberInterLink",
		"sct::Clamp0",
		"sct::Clamp1",
		"sct::Clamp2",
		"sct::Clamp3",
		"sct::CoolingEnd0",
		"sct::CoolingEnd1",
		"sct::CoolingEnd2",
		"sct::CoolingEnd3",
		"sct::CoolingPipe",
		"sct::DiscFixation",
		"sct::DiscSupport0",
		"sct::DiscSupport1",
		"sct::ModuleConnector",
		"sct::DiscSupport2",
		"sct::DiscSupport3",
		"sct::DiscSupport4",
		"sct::DiscSupport5",
		"sct::DiscSupport6",
		"sct::DiscSupport7",
		"sct::DiscSupport8",
		"sct::FSIBL",
		"sct::FSIBH",
		"sct::FSIFL",
		"sct::FSIFH",
		"sct::FwdCoolingPipe",
		"sct::FwdFlangeFrontInn",
		"sct::FwdFlangeFrontOut",
		"sct::FwdFlangeRearInn",
		"sct::FwdFlangeRearOut",
		"sct::FwdNPipe",
		"sct::FwdShuntShield",
		"sct::PPConnector",
		"sct::PPCooling",
		"sct::PPF0c",
		"sct::PPF0e",
		"sct::PPF0o",
		"sct::TSBulkhead",
		"sct::TSEndPanel"
            ],
            "shininess": 0.800000011920929,
            "specular": {
                "B": 0.27000001072883606,
                "G": 0.27000001072883606,
                "R": 0.27000001072883606
            },
            "transparency": 0.0
        },
        {
            "ambient": {
                "B": 0.5699999928474426,
                "G": 0.5699999928474426,
                "R": 0.5699999928474426
            },
            "diffuse": {
                "B": 0.6000000238418579,
                "G": 0.699999988079071,
                "R": 0.800000011920929
            },
            "emissive": {
                "B": 0.0,
                "G": 0.0,
                "R": 0.0
            },
            "name": [
                "sct::DiscCoolingMid",
		"sct::DiscPowerTapeMid",
		"sct::DiscPowerTapeInn",
		"sct::DiscPowerTapeOut",
		"sct::EMI",
		"sct::EMIJoint",
		"sct::Flange0",
		"sct::Flange1",
		"sct::Flange2",
		"sct::Flange3",
		"sct::FwdFrontSupport",
		"sct::FwdITE",
		"sct::FwdLMT",
		"sct::FwdLMTCooling",
		"sct::FwdOTE",
		"sct::FwdRearSupport",
		"sct::FwdRail",
		"sct::FwdSupport",
		"sct::FwdSpineMid",
		"sct::FwdSpineOut",
		"sct::FwdSpineInn",
		"sct::Harness",
		"sct::OptoHarnessO",
		"sct::OptoHarnessOM",
		"sct::OptoHarnessOMI",
		"sct::Spider",
		"sct::SupportCyl0",
		"sct::SupportCyl1",
		"sct::SupportCyl2",
		"sct::SupportCyl3",
		"sct::TSCylinder"
            ],
            "shininess": 0.800000011920929,
            "specular": {
                "B": 0.27000001072883606,
                "G": 0.27000001072883606,
                "R": 0.27000001072883606
            },
            "transparency": 0.0
        },
        {
            "ambient": {
                "B": 0.20000000298023224,
                "G": 0.20000000298023224,
                "R": 0.20000000298023224
            },
            "diffuse": {
                "B": 0.49803999066352844,
                "G": 0.3333300054073334,
                "R": 0.3333300054073334
            },
            "emissive": {
                "B": 0.0,
                "G": 0.0,
                "R": 0.0
            },
            "name": [
                "sct::FwdFibres"
            ],
            "shininess": 0.0,
            "specular": {
                "B": 0.0,
                "G": 0.0,
                "R": 0.0
            },
            "transparency": 0.0
        },
        {
            "ambient": {
                "B": 0.5699999928474426,
                "G": 0.5699999928474426,
                "R": 0.5699999928474426
            },
            "diffuse": {
                "B": 0.44999998807907104,
                "G": 0.5249999761581421,
                "R": 0.6000000238418579
            },
            "emissive": {
                "B": 0.0,
                "G": 0.0,
                "R": 0.0
            },
            "name": [
                "sct::FwdHybrid",
		"sct::CoolBlockMainHi",
		"sct::CoolBlockMainLo"
            ],
            "shininess": 0.800000011920929,
            "specular": {
                "B": 0.27000001072883606,
                "G": 0.27000001072883606,
                "R": 0.27000001072883606
            },
            "transparency": 0.0
        }
    ]
}
